[
  {
    "text": "Approvers: Highest Decision Makers",
    "nodes": [
      {
        "text": "Ainun Najib",
        "nodes": [
          {
            "text": "Grandchild 1"
          },
          {
            "text": "Grandchild 2"
          }
        ]
      },
      {
        "text": "Zain Fathoni"
      },
      {
        "text": "Iwan N"
      },
      {
        "text": "Miki"
      },
      {
        "text": "Dewindra Widiamurti"
      },
      {
        "text": "Grace"
      },
      {
        "text": "Dayce Sjaflan"
      },
      {
        "text": "Elina"
      },
      {
        "text": "Septian Hartono"
      },
      {
        "text": "Ruly Achdiat"
      }
    ]
  },
  {
    "text": "Team Analytics",
    "nodes": [
      {
        "text": "PIC: Ibrahim Arief",
        "nodes": [
          {
            "text": "Eka Data"
          },
          {
            "text": "Grandchild 2"
          }
        ]
      },
      {
        "text": "Child 2"
      }
    ]
  },
  {
    "text": "Team clm likelihood meter",
    "nodes": [
      {
        "text": "PIC: Nanda Prasetya, dr."
      }
    ]
  },
  {
    "text": "Team Content",
    "nodes": [
      {
        "text": "PIC: Resi, Angelo",
        "nodes": [
          {
            "text": "Nindy"
          },
          {
            "text": "Add another member here"
          }
        ]
      }
    ]
  },
  {
    "text": "Team Data Eng",
    "nodes": [
      {
        "text": "PIC: Rendy B. Junior",
        "nodes": [
          {
            "text": "Rara"
          },
          {
            "text": "Add another member here"
          }
        ]
      }
    ]
  },
  {
    "text": "Team Fatality News",
    "nodes": [
      {
        "text": "PIC: Rendy B. Junior",
        "nodes": [
          {
            "text": "Indra Pambudi"
          },
          {
            "text": "Add another member here"
          }
        ]
      }
    ]
  },
  {
    "text": "Team Handbook",
    "nodes": [
      {
        "text": "Handbook Maintainers",
        "nodes": [
          {
            "text": "Add another member here"
          }
        ]
      }
    ]
  },
  {
    "text": "Team Kawal Diri",
    "nodes": [
      {
        "text": "PIC:Riza Alaudin Syah",
        "nodes": [
          {
            "text": "Add another member here"
          }
        ]
      },
      {
        "text": "Product Lead: Dilla Anindita",
        "nodes": [
          {
            "text": "Add another member here"
          }
        ]
      }
    ]
  },
  {
    "text": "#team-kawalrumahsakit-crowdsource-dari-rs",
    "nodes": [
      {
        "text": "PIC: Felix Halim",
        "nodes": [
          {
            "text": "Add another member here"
          }
        ]
      },
      {
        "text": "PM: Brahmasta Adipradana"
      },
      {
        "text": "Ops: Giovanni van Empel"
      }
    ]
  },
  {
    "text": "team-needs-matchmaking",
    "nodes": [
      {
        "text": "PIC: Sonny Prakoso",
        "nodes": [
          {
            "text": "Add another member here"
          }
        ]
      }
    ]
  },
  {
    "text": "team-personal-healthkit",
    "nodes": [
      {
        "text": "PIC: Ulul Albab",
        "nodes": [
          {
            "text": "Add another member here"
          }
        ]
      }
    ]
  },
  {
    "text": "team-self-diagnose",
    "nodes": [
      {
        "text": "PIC:Pandu Putra",
        "nodes": [
          {
            "text": "Add another member here"
          }
        ]
      }
    ]
  },
  {
    "text": "Team Tech",
    "nodes": [
      {
        "text": "Edwin Lunando"
      },
      {
        "text": "Harimurti Prasetio"
      },
      {
        "text": "Ulil Albab"
      }
    ]
  },
  {
    "text": "team-website",
    "nodes": [
      {
        "text": "PIC: Resi",
        "nodes": [
          {
            "text": "Add another member here"
          }
        ]
      },
      {
        "text": "PM:Azzahra Maulia,Yosua Ida Bagus Kurnianto",
        "nodes": [
          {
            "text": "Add another member here"
          }
        ]
      }
    ]
  },
  {
    "text": "team-whatsapp",
    "nodes": [
      {
        "text": "PIC: Pria",
        "nodes": [
          {
            "text": "Add another member here"
          }
        ]
      }
    ]
  }
]